<svg width="58" height="52" viewBox="0 0 58 52" fill="none" xmlns="http://www.w3.org/2000/svg">
<path d="M52.0398 12.9217C52.0634 13.4925 52.0634 14.0374 52.0634 14.6082C52.0869 31.9152 40.1194 51.8947 18.234 51.8947C11.779 51.8947 5.44192 49.8449 0 46.0047C0.942323 46.1344 1.88465 46.1863 2.82697 46.1863C8.17465 46.1863 13.381 44.2143 17.5979 40.5557C12.5093 40.4519 8.03331 36.7933 6.47847 31.4481C8.26889 31.8374 10.1064 31.7595 11.8497 31.2146C6.31357 30.021 2.33225 24.6499 2.30869 18.3966C2.30869 18.3447 2.30869 18.2928 2.30869 18.2409C3.95776 19.2528 5.81885 19.8237 7.70349 19.8756C2.49716 16.0354 0.871649 8.38086 4.02843 2.387C10.0829 10.5864 18.9878 15.5424 28.5524 16.0873C27.5865 11.5464 28.9058 6.77212 31.9919 3.55463C36.7742 -1.40133 44.3128 -1.14185 48.8359 4.12548C51.498 3.55463 54.0658 2.46484 56.398 0.933942C55.5028 3.96979 53.6418 6.53859 51.1682 8.17328C53.524 7.86191 55.8327 7.16133 58 6.12343C56.398 8.77007 54.3721 11.0534 52.0398 12.9217Z" fill="white"/>
</svg>
